\relax 
\catcode `"\active 
\select@language{ngerman}
\@writefile{toc}{\select@language{ngerman}}
\@writefile{lof}{\select@language{ngerman}}
\@writefile{lot}{\select@language{ngerman}}
\@writefile{toc}{\contentsline {section}{\numberline {1}Einleitung}{1}}
\@writefile{toc}{\contentsline {section}{\numberline {2}Zielgruppe}{1}}
\@writefile{toc}{\contentsline {subsection}{\numberline {2.1}Zielgruppe der leihenden Personen}{2}}
\@writefile{toc}{\contentsline {subsection}{\numberline {2.2}Zielgruppe der verleihenden Personen}{2}}
\@writefile{toc}{\contentsline {section}{\numberline {3}Kundennutzen}{2}}
\@writefile{toc}{\contentsline {section}{\numberline {4}Produkt-Mission}{3}}
\@writefile{toc}{\contentsline {section}{\numberline {5}Alleinstellungsmerkmal}{3}}
